<?xml version="1.0" encoding="UTF-8" standalone="no"?>
<!DOCTYPE svg PUBLIC "-//W3C//DTD SVG 1.1//EN"
 "http://www.w3.org/Graphics/SVG/1.1/DTD/svg11.dtd">
<!-- Generated by graphviz version 2.36.0 (20140111.2315)
 -->
<!-- Title: models_diagram Pages: 1 -->
<svg width="402pt" height="302pt"
 viewBox="0.00 0.00 402.00 302.00" xmlns="http://www.w3.org/2000/svg" xmlns:xlink="http://www.w3.org/1999/xlink">
<g id="graph0" class="graph" transform="scale(1 1) rotate(0) translate(4 298)">
<title>models_diagram</title>
<polygon fill="none" stroke="none" points="-4,4 -4,-298 398,-298 398,4 -4,4"/>
<!-- _diagram_info -->
<g id="node1" class="node"><title>_diagram_info</title>
<text text-anchor="start" x="8" y="-279.6" font-family="Times,serif" font-size="13.00">Models diagram</text>
<text text-anchor="start" x="8" y="-265.6" font-family="Times,serif" font-size="13.00">Date: Dec 09 2015 &#45; 13:30</text>
<text text-anchor="start" x="8" y="-251.6" font-family="Times,serif" font-size="13.00">Migration version: 20151208101301</text>
<text text-anchor="start" x="8" y="-237.6" font-family="Times,serif" font-size="13.00">Generated by RailRoady 1.4.1</text>
<text text-anchor="start" x="8" y="-223.6" font-family="Times,serif" font-size="13.00">http://railroady.prestonlee.com</text>
</g>
<!-- User -->
<g id="node2" class="node"><title>User</title>
<ellipse fill="none" stroke="black" cx="258" cy="-162" rx="26.949" ry="18"/>
<text text-anchor="middle" x="258" y="-158.3" font-family="Times,serif" font-size="14.00">User</text>
</g>
<!-- Comment -->
<g id="node3" class="node"><title>Comment</title>
<ellipse fill="none" stroke="black" cx="304" cy="-18" rx="46.2191" ry="18"/>
<text text-anchor="middle" x="304" y="-14.3" font-family="Times,serif" font-size="14.00">Comment</text>
</g>
<!-- User&#45;&gt;Comment -->
<g id="edge2" class="edge"><title>User&#45;&gt;Comment</title>
<path fill="none" stroke="#227d3e" d="M257.647,-135.346C258.163,-117.147 260.444,-92.4276 268,-72 271.666,-62.0891 277.569,-52.2353 283.543,-43.761"/>
<ellipse fill="none" stroke="#227d3e" cx="257.58" cy="-139.709" rx="4" ry="4"/>
<polygon fill="#227d3e" stroke="#227d3e" points="283.733,-43.5061 293.314,-38.172 286.719,-39.4954 289.704,-35.4848 289.704,-35.4848 289.704,-35.4848 286.719,-39.4954 286.095,-32.7976 283.733,-43.5061 283.733,-43.5061"/>
</g>
<!-- Post -->
<g id="node4" class="node"><title>Post</title>
<ellipse fill="none" stroke="black" cx="304" cy="-90" rx="27" ry="18"/>
<text text-anchor="middle" x="304" y="-86.3" font-family="Times,serif" font-size="14.00">Post</text>
</g>
<!-- User&#45;&gt;Post -->
<g id="edge1" class="edge"><title>User&#45;&gt;Post</title>
<path fill="none" stroke="#0dd688" d="M272.912,-138.308C277.769,-130.917 283.177,-122.687 288.103,-115.19"/>
<ellipse fill="none" stroke="#0dd688" cx="270.635" cy="-141.773" rx="4.00002" ry="4.00002"/>
<polygon fill="#0dd688" stroke="#0dd688" points="288.111,-115.178 297.364,-109.293 290.857,-111 293.603,-106.821 293.603,-106.821 293.603,-106.821 290.857,-111 289.843,-104.35 288.111,-115.178 288.111,-115.178"/>
</g>
<!-- Post&#45;&gt;Comment -->
<g id="edge5" class="edge"><title>Post&#45;&gt;Comment</title>
<path fill="none" stroke="#b5730a" d="M304,-63.6398C304,-58.0629 304,-52.1319 304,-46.4761"/>
<ellipse fill="none" stroke="#b5730a" cx="304" cy="-67.6966" rx="4" ry="4"/>
<polygon fill="#b5730a" stroke="#b5730a" points="304,-46.1043 308.5,-36.1043 304,-41.1043 304,-36.1043 304,-36.1043 304,-36.1043 304,-41.1043 299.5,-36.1044 304,-46.1043 304,-46.1043"/>
</g>
<!-- ActiveRecord::Base -->
<g id="node5" class="node"><title>ActiveRecord::Base</title>
<ellipse fill="none" stroke="black" cx="313" cy="-255" rx="81.3646" ry="18"/>
<text text-anchor="middle" x="313" y="-251.3" font-family="Times,serif" font-size="14.00">ActiveRecord::Base</text>
</g>
<!-- ActiveRecord::Base&#45;&gt;User -->
<g id="edge3" class="edge"><title>ActiveRecord::Base&#45;&gt;User</title>
<path fill="none" stroke="black" d="M302.655,-236.884C292.635,-220.305 277.556,-195.357 267.745,-179.123"/>
</g>
<!-- ActiveRecord::Base&#45;&gt;Comment -->
<g id="edge4" class="edge"><title>ActiveRecord::Base&#45;&gt;Comment</title>
<path fill="none" stroke="black" d="M320.393,-237.064C333.573,-204.447 358.12,-130.927 340,-72 335.815,-58.3911 326.815,-45.1411 318.861,-35.2933"/>
</g>
<!-- ActiveRecord::Base&#45;&gt;Post -->
<g id="edge6" class="edge"><title>ActiveRecord::Base&#45;&gt;Post</title>
<path fill="none" stroke="black" d="M312.054,-236.864C310.33,-205.64 306.695,-139.812 304.961,-108.397"/>
</g>
</g>
</svg>
